{
    "comments": [
      { "id": 1, "body": "some comment", "postId": 1 },
      { "id": 2, "body": "some comment", "postId": 1 }
    ],
    "profile": {
      "name": "typicode"
    },
    "homepage" : {
        "totalItems": 883,
        "totalPages": 45,
        "page": 1,
        "size": 20
    }
  }